"Keyword","Meaning"
"public-domain","No license required for any purpose; the work is not subject to copyright in any jurisdiction."
"Apache-1.0","Apache license 1.0, 2.0."
"Apache-2.0",
"Artistic-1.0","Artistic license 1.0, 2.0."
"Artistic-2.0",
"BSD-2-clause","Berkeley software distribution license, 2-clause version."
"BSD-3-clause","Berkeley software distribution license, 3-clause version."
"BSD-4-clause","Berkeley software distribution license, 4-clause version."
"ISC","Internet Software Consortium, sometimes also known as the OpenBSD License."
"CC-BY-1.0","Creative Commons Attribution license 1.0, 2.0, 2.5, 3.0."
"CC-BY-2.0",
"CC-BY-2.5",
"CC-BY-3.0",
"CC-BY-SA-1.0","Creative Commons Attribution Share Alike license 1.0, 2.0, 2.5, 3.0."
"CC-BY-SA-2.0",
"CC-BY-SA-2.5",
"CC-BY-SA-3.0",
"CC-BY-ND-1.0","Creative Commons Attribution No Derivatives license 1.0, 2.0, 2.5, 3.0."
"CC-BY-ND-2.0",
"CC-BY-ND-2.5",
"CC-BY-ND-3.0",
"CC-BY-NC-1.0","Creative Commons Attribution Non-Commercial license 1.0, 2.0, 2.5, 3.0."
"CC-BY-NC-2.0",
"CC-BY-NC-2.5",
"CC-BY-NC-3.0",
"CC-BY-NC-SA-1.0","Creative Commons Attribution Non-Commercial Share Alike license 1.0, 2.0, 2.5, 3.0."
"CC-BY-NC-SA-2.0",
"CC-BY-NC-SA-2.5",
"CC-BY-NC-SA-3.0",
"CCC-BY-NC-ND-1.0","Creative Commons Attribution Non-Commercial No Derivatives license 1.0, 2.0, 2.5, 3.0."
"CCC-BY-NC-ND-2.0",
"CCC-BY-NC-ND-2.5",
"CCC-BY-NC-ND-3.0",
"CC0","Creative Commons Zero 1.0 Universal. Omit ""Universal"" from the license version when forming the short name."
"CDDL-1.0","Common Development and Distribution License 1.0."
"CDDL-1.1",
"CPL","IBM Common Public License."
"EFL-1.0","The Eiffel Forum License 1.0, 2.0."
"EFL-2.0",
"Expat","The Expat license."
"GPL-1.0+",
"GPL-1.0","GNU General Public License 1.0, 2.0, 3.0."
"GPL-2.0+",
"GPL-2.0",
"GPL-3.0+",
"GPL-3.0",
"LGPL-2.0+",
"LGPL-2.0","GNU Lesser General Public License 2.1, 3.0, or GNU Library General Public License 2.0."
"LGPL-2.1+",
"LGPL-2.1",
"LGPL-3.0+",
"LGPL-3.0",
"GFDL-1.1","GNU Free Documentation License 1.0, 1.1, 1.2, or 1.3. Use GFDL-NIV instead if there are no Front-Cover or Back-Cover Texts or Invariant Sections."
"GFDL-1.2",
"GFDL-1.3",
"GFDL-NIV-1.1","GNU Free Documentation License, with no Front-Cover or Back-Cover Texts or Invariant Sections. Use the same version numbers as GFDL."
"GFDL-NIV-1.2",
"GFDL-NIV-1.3",
"LPPL-1.0","LaTeX Project Public License 1.0, 1.1, 1.2, 1.3c."
"LPPL-1.1",
"LPPL-1.2",
"LPPL-1.3c",
"MPL-1.1","Mozilla Public License 1.1."
"Perl","Perl license (use ""GPL-1+ or Artistic-1"" instead)."
"Python-2.0","Python license 2.0."
"QPL-1.0","Q Public License 1.0."
"W3C","W3C Software License For more information, consult the W3C Intellectual Rights FAQ."
"Zlib","zlib/libpng license."
"Zope-1.1","Zope Public License 1.0, 1.1, 2.0, 2.1."
"Zope-2.0",
"Zope-2.1",
